package.final Tutorial • package.final
…
We can see that there are NAs in the my_penguins dataset. To properly
use the package for all variables, we need to first clean the dataset
using na.omit():

peng_clean <- na.omit(my_penguins)
peng_clean
#> # A tibble: 333 × 8
#>    species island    bill_length_mm bill_depth_mm flipper_length_mm body_mass_g
#>    <fct>   <fct>              <dbl>         <dbl>             <int>       <int>
#>  1 Adelie  Torgersen           39.1          18.7               181        3750
#>  2 Adelie  Torgersen           39.5          17.4               186        3800
#>  3 Adelie  Torgersen           40.3          18                 195        3250
#>  4 Adelie  Torgersen           36.7          19.3               193        3450
#>  5 Adelie  Torgersen           39.3          20.6               190        3650
#>  6 Adelie  Torgersen           38.9          17.8               181        3625
#>  7 Adelie  Torgersen           39.2          19.6               195        4675
#>  8 Adelie  Torgersen           41.1          17.6               182        3200
#>  9 Adelie  Torgersen           38.6          21.2               191        3800
#> 10 Adelie  Torgersen           34.6          21.1               198        4400
#> # ℹ 323 more rows
#> # ℹ 2 more variables: sex <fct>, year <int>
…
